Intervalos de confianza y pruebas de hipótesis en R - Blog de Jaime
…
\(\theta\) es cualquiera de los parámetros que hemos estudiado: \(\mu, \sigma, p\)

\(i=\lbrace\text{r, w, s, m, ss}\rbrace\), que corresponde a read, write, science, math, socst respectivamente.

\(j=\lbrace\text{aa, a, h, w}\rbrace\), que corresponde a african american, asian, hispanic, white.

Inferencia sobre una población

Consideremos la muestra de los hispanos:

hispanic <- hsb2[hsb2$race=='hispanic',]
hispanic

## # A tibble: 24 x 11
##       id gender race     ses    schtyp prog       read write  math science socst
##    <int> <chr>  <chr>    <fct>  <fct>  <fct>     <int> <int> <int>   <int> <int>
##  1    11 male   hispanic middle public academic     34    46    45      39    36
##  2    20 male   hispanic high   public academic     60    52    57      61    61
##  3    12 male   hispanic middle public vocation~    37    44    45      39    46
##  4    16 male   hispanic low    public vocation~    47    31    44      36    36
##  5     7 male   hispanic middle public academic     57    54    59      47    51
##  6    21 male   hispanic middle public general      44    44    61      50    46
##  7    15 male   hispanic high   public vocation~    39    39    44      26    42
##  8    22 male   hispanic middle public vocation~    42    39    39      56    46
##  9     9 male   hispanic middle public vocation~    48    49    52      44    51
## 10    18 male   hispanic middle public vocation~    50    33    49      44    36
## # ... with 14 more rows
…
